riscv_singlecycle.sim/sim_1/behav/xsim/waveforms.vcd
$date
   Thu Dec  8 13:34:07 2022
$end
$version
  2022.2
$end
$timescale
  1ps
$end
$scope module riscvtb $end
$var reg 1 ! clk $end
$var reg 1 " reset $end
$var wire 32 # x0 [31:0] $end
$var wire 32 $ x1 [31:0] $end
$var wire 32 % x2 [31:0] $end
$var wire 32 & x4 [31:0] $end
$scope module rs1 $end
$var wire 1 ' clk $end
$var wire 1 ( reset $end
$var wire 32 # x0 [31:0] $end
$var wire 32 $ x1 [31:0] $end
$var wire 32 % x2 [31:0] $end
$var wire 32 & x4 [31:0] $end
$var wire 5 ) pcnext [4:0] $end
$var wire 5 * pcout [4:0] $end
$var wire 32 + instruction [31:0] $end
$var wire 5 , pcplus4 [4:0] $end
$var wire 32 - read_data1 [31:0] $end
$var wire 32 . read_data2 [31:0] $end
$var wire 1 / regwrite $end
$var wire 32 0 immext [31:0] $end
$var wire 2 1 immsrc [1:0] $end
$var wire 32 2 aluresult [31:0] $end
$var wire 1 3 alusrc $end
$var wire 32 4 alumuxout [31:0] $end
$var wire 2 5 alucontrol [1:0] $end
$var wire 1 6 zero $end
$var wire 1 7 memwrite $end
$var wire 32 8 read_data [31:0] $end
$var wire 32 9 resultmuxout [31:0] $end
$var wire 1 : resultsrc $end
$var wire 32 ; pctarget [31:0] $end
$var wire 1 < pcsrc $end
$upscope $end
$upscope $end
$enddefinitions $end
#0
$dumpvars
0!
0"
bx #
bx $
bx %
bx &
0'
0(
bx )
bx *
bx +
bx ,
bx -
bx .
x/
bx 0
bx 1
bx 2
x3
bx 4
bx 5
x6
x7
bx 8
bx 9
x:
bzxxxxx ;
x<
$end
#10000
1!
1"
b0 #
b0 $
b0 %
b0 &
1'
1(
b1 )
b0 *
b1000000000100001000000000110011 +
b1 ,
b0 -
b0 .
1/
b10000000001 0
b0 2
03
b0 4
b1 5
16
07
b0 8
b0 9
0:
bz00001 ;
0<
#20000
0!
0"
0'
0(
#30000
1!
1'
b10 )
b1 *
b100000000000010010011 +
b10 ,
b0 -
b1 0
b0 1
b1 2
13
b1 4
b0 5
06
b0 8
b1 9
bz00010 ;
0<
#40000
0!
0'
#50000
1!
b1 $
1'
b11 )
b10 *
b1100011110100000000001000010011 +
b11 ,
b0 -
b0 .
b11000111101 0
b11000111101 2
b11000111101 4
b0 8
b11000111101 9
bz11111 ;
#60000
0!
0'
#70000
1!
b11000111101 &
1'
b100 )
b11 *
b100000000000100110011 +
b100 ,
b0 -
b1 .
b1 0
bx 1
b1 2
03
b1 4
b0 8
b1 9
bz00100 ;
#80000
0!
0'
#90000
1!
b1 %
1'
b101 )
b100 *
b11111110010000010000110011100011 +
b101 ,
b1 -
b11000111101 .
0/
b11111111111111111111111111111100 0
b10 1
b11111111111111111111100111000100 2
b11000111101 4
b1 5
b0 8
bx00xxx000x00 9
x:
bz00000 ;
0<
#100000
0!
0'
#110000
1!
1'
b110 )
b101 *
b1000000000010011 +
b110 ,
b1 -
b0 .
1/
b0 0
b0 1
b1 2
13
b0 4
b0 5
b0 8
b1 9
0:
bz00101 ;
0<
#120000
0!
0'
#130000
1!
b1 #
1'
b111 )
b110 *
b10000000010010011 +
b111 ,
b1 -
b1 .
b0 4
bz00110 ;
#140000
0!
0'
#150000
1!
1'
b11 )
b111 *
b11111110001100011000110011100011 +
b1000 ,
b0 -
b0 .
0/
b11111111111111111111111111111100 0
b10 1
b0 2
03
b0 4
b1 5
16
b0 8
b0 9
x:
bz00011 ;
1<
#160000
0!
0'
#170000
1!
1'
b100 )
b11 *
b100000000000100110011 +
b100 ,
b1 -
b1 .
1/
b1 0
bx 1
b10 2
b1 4
b0 5
06
b0 8
b10 9
0:
bz00100 ;
0<
#180000
0!
0'
#190000
1!
b10 %
1'
b101 )
b100 *
b11111110010000010000110011100011 +
b101 ,
b10 -
b11000111101 .
0/
b11111111111111111111111111111100 0
b10 1
b11111111111111111111100111000101 2
b11000111101 4
b1 5
b0 8
bx00xxx000x0x 9
x:
bz00000 ;
0<
#200000
0!
0'
#210000
1!
1'
b110 )
b101 *
b1000000000010011 +
b110 ,
b1 -
b1 .
1/
b0 0
b0 1
b1 2
13
b0 4
b0 5
06
b0 8
b1 9
0:
bz00101 ;
0<
#220000
0!
0'
#230000
1!
1'
b111 )
b110 *
b10000000010010011 +
b111 ,
b10 -
b10 2
b0 8
b10 9
bz00110 ;
#240000
0!
0'
#250000
1!
b10 $
1'
b11 )
b111 *
b11111110001100011000110011100011 +
b1000 ,
b0 -
b0 .
0/
b11111111111111111111111111111100 0
b10 1
b0 2
03
b0 4
b1 5
16
b0 8
b0 9
x:
bz00011 ;
1<
#260000
0!
0'
#270000
1!
1'
b100 )
b11 *
b100000000000100110011 +
b100 ,
b1 -
b10 .
1/
b1 0
bx 1
b11 2
b10 4
b0 5
06
b0 8
b11 9
0:
bz00100 ;
0<
#280000
0!
0'
#290000
1!
b11 %
1'
b101 )
b100 *
b11111110010000010000110011100011 +
b101 ,
b11 -
b11000111101 .
0/
b11111111111111111111111111111100 0
b10 1
b11111111111111111111100111000110 2
b11000111101 4
b1 5
b0 8
bx00xxx000xx0 9
x:
bz00000 ;
0<
#300000
0!
0'
#310000
1!
1'
b110 )
b101 *
b1000000000010011 +
b110 ,
b10 -
b1 .
1/
b0 0
b0 1
b10 2
13
b0 4
b0 5
b0 8
b10 9
0:
bz00101 ;
0<
#320000
0!
0'
#330000
1!
b10 #
1'
b111 )
b110 *
b10000000010010011 +
b111 ,
b11 -
b10 .
b11 2
b0 4
b0 8
b11 9
bz00110 ;
#340000
0!
0'
#350000
1!
b11 $
1'
b11 )
b111 *
b11111110001100011000110011100011 +
b1000 ,
b0 -
b0 .
0/
b11111111111111111111111111111100 0
b10 1
b0 2
03
b0 4
b1 5
16
b0 8
b0 9
x:
bz00011 ;
1<
#360000
0!
0'
#370000
1!
1'
b100 )
b11 *
b100000000000100110011 +
b100 ,
b10 -
b11 .
1/
b1 0
bx 1
b101 2
b11 4
b0 5
06
b0 8
b101 9
0:
bz00100 ;
0<
#380000
0!
0'
#390000
1!
b101 %
1'
b101 )
b100 *
b11111110010000010000110011100011 +
b101 ,
b101 -
b11000111101 .
0/
b11111111111111111111111111111100 0
b10 1
b11111111111111111111100111001000 2
b11000111101 4
b1 5
b0 8
bx00xxx00x000 9
x:
bz00000 ;
0<
#400000
0!
0'
#410000
1!
1'
b110 )
b101 *
b1000000000010011 +
b110 ,
b11 -
b10 .
1/
b0 0
b0 1
b11 2
13
b0 4
b0 5
b0 8
b11 9
0:
bz00101 ;
0<
#420000
0!
0'
#430000
1!
b11 #
1'
b111 )
b110 *
b10000000010010011 +
b111 ,
b101 -
b11 .
b101 2
b0 4
b0 8
b101 9
bz00110 ;
#440000
0!
0'
#450000
1!
b101 $
1'
b11 )
b111 *
b11111110001100011000110011100011 +
b1000 ,
b0 -
b0 .
0/
b11111111111111111111111111111100 0
b10 1
b0 2
03
b0 4
b1 5
16
b0 8
b0 9
x:
bz00011 ;
1<
#460000
0!
0'
#470000
1!
1'
b100 )
b11 *
b100000000000100110011 +
b100 ,
b11 -
b101 .
1/
b1 0
bx 1
b1000 2
b101 4
b0 5
06
b0 8
b1000 9
0:
bz00100 ;
0<
#480000
0!
0'
#490000
1!
b1000 %
1'
b101 )
b100 *
b11111110010000010000110011100011 +
b101 ,
b1000 -
b11000111101 .
0/
b11111111111111111111111111111100 0
b10 1
b11111111111111111111100111001011 2
b11000111101 4
b1 5
b0 8
bx00xxx00x0xx 9
x:
bz00000 ;
0<
#500000
0!
0'
#510000
1!
1'
b110 )
b101 *
b1000000000010011 +
b110 ,
b101 -
b11 .
1/
b0 0
b0 1
b101 2
13
b0 4
b0 5
b0 8
b101 9
0:
bz00101 ;
0<
#520000
0!
0'
#530000
1!
b101 #
1'
b111 )
b110 *
b10000000010010011 +
b111 ,
b1000 -
b101 .
b1000 2
b0 4
b0 8
b1000 9
bz00110 ;
#540000
0!
0'
#550000
1!
b1000 $
1'
b11 )
b111 *
b11111110001100011000110011100011 +
b1000 ,
b0 -
b0 .
0/
b11111111111111111111111111111100 0
b10 1
b0 2
03
b0 4
b1 5
16
b0 8
b0 9
x:
bz00011 ;
1<
#560000
0!
0'
#570000
1!
1'
b100 )
b11 *
b100000000000100110011 +
b100 ,
b101 -
b1000 .
1/
b1 0
bx 1
b1101 2
b1000 4
b0 5
06
b0 8
b1101 9
0:
bz00100 ;
0<
#580000
0!
0'
#590000
1!
b1101 %
1'
b101 )
b100 *
b11111110010000010000110011100011 +
b101 ,
b1101 -
b11000111101 .
0/
b11111111111111111111111111111100 0
b10 1
b11111111111111111111100111010000 2
b11000111101 4
b1 5
b0 8
bx00xxx0x0000 9
x:
bz00000 ;
0<
#600000
0!
0'
#610000
1!
1'
b110 )
b101 *
b1000000000010011 +
b110 ,
b1000 -
b101 .
1/
b0 0
b0 1
b1000 2
13
b0 4
b0 5
b0 8
b1000 9
0:
bz00101 ;
0<
#620000
0!
0'
#630000
1!
b1000 #
1'
b111 )
b110 *
b10000000010010011 +
b111 ,
b1101 -
b1000 .
b1101 2
b0 4
b0 8
b1101 9
bz00110 ;
#640000
0!
0'
#650000
1!
b1101 $
1'
b11 )
b111 *
b11111110001100011000110011100011 +
b1000 ,
b0 -
b0 .
0/
b11111111111111111111111111111100 0
b10 1
b0 2
03
b0 4
b1 5
16
b0 8
b0 9
x:
bz00011 ;
1<
#660000
0!
0'
#670000
1!
1'
b100 )
b11 *
b100000000000100110011 +
b100 ,
b1000 -
b1101 .
1/
b1 0
bx 1
b10101 2
b1101 4
b0 5
06
b0 8
b10101 9
0:
bz00100 ;
0<
#680000
0!
0'
#690000
1!
b10101 %
1'
b101 )
b100 *
b11111110010000010000110011100011 +
b101 ,
b10101 -
b11000111101 .
0/
b11111111111111111111111111111100 0
b10 1
b11111111111111111111100111011000 2
b11000111101 4
b1 5
b0 8
bx00xxx0xx000 9
x:
bz00000 ;
0<
#700000
0!
0'
#710000
1!
1'
b110 )
b101 *
b1000000000010011 +
b110 ,
b1101 -
b1000 .
1/
b0 0
b0 1
b1101 2
13
b0 4
b0 5
b0 8
b1101 9
0:
bz00101 ;
0<
#720000
0!
0'
#730000
1!
b1101 #
1'
b111 )
b110 *
b10000000010010011 +
b111 ,
b10101 -
b1101 .
b10101 2
b0 4
b0 8
b10101 9
bz00110 ;
#740000
0!
0'
#750000
1!
b10101 $
1'
b11 )
b111 *
b11111110001100011000110011100011 +
b1000 ,
b0 -
b0 .
0/
b11111111111111111111111111111100 0
b10 1
b0 2
03
b0 4
b1 5
16
b0 8
b0 9
x:
bz00011 ;
1<
#760000
0!
0'
#770000
1!
1'
b100 )
b11 *
b100000000000100110011 +
b100 ,
b1101 -
b10101 .
1/
b1 0
bx 1
b100010 2
b10101 4
b0 5
06
b0 8
b100010 9
0:
bz00100 ;
0<
#780000
0!
0'
#790000
1!
b100010 %
1'
b101 )
b100 *
b11111110010000010000110011100011 +
b101 ,
b100010 -
b11000111101 .
0/
b11111111111111111111111111111100 0
b10 1
b11111111111111111111100111100101 2
b11000111101 4
b1 5
b0 8
bx00xxxx00x0x 9
x:
bz00000 ;
0<
#800000
0!
0'
#810000
1!
1'
b110 )
b101 *
b1000000000010011 +
b110 ,
b10101 -
b1101 .
1/
b0 0
b0 1
b10101 2
13
b0 4
b0 5
b0 8
b10101 9
0:
bz00101 ;
0<
#820000
0!
0'
#830000
1!
b10101 #
1'
b111 )
b110 *
b10000000010010011 +
b111 ,
b100010 -
b10101 .
b100010 2
b0 4
b0 8
b100010 9
bz00110 ;
#840000
0!
0'
#850000
1!
b100010 $
1'
b11 )
b111 *
b11111110001100011000110011100011 +
b1000 ,
b0 -
b0 .
0/
b11111111111111111111111111111100 0
b10 1
b0 2
03
b0 4
b1 5
16
b0 8
b0 9
x:
bz00011 ;
1<
#860000
0!
0'
#870000
1!
1'
b100 )
b11 *
b100000000000100110011 +
b100 ,
b10101 -
b100010 .
1/
b1 0
bx 1
b110111 2
b100010 4
b0 5
06
b0 8
b110111 9
0:
bz00100 ;
0<
#880000
0!
0'
#890000
1!
b110111 %
1'
b101 )
b100 *
b11111110010000010000110011100011 +
b101 ,
b110111 -
b11000111101 .
0/
b11111111111111111111111111111100 0
b10 1
b11111111111111111111100111111010 2
b11000111101 4
b1 5
b0 8
bx00xxxxxx0x0 9
x:
bz00000 ;
0<
#900000
0!
0'
#910000
1!
1'
b110 )
b101 *
b1000000000010011 +
b110 ,
b100010 -
b10101 .
1/
b0 0
b0 1
b100010 2
13
b0 4
b0 5
b0 8
b100010 9
0:
bz00101 ;
0<
#920000
0!
0'
#930000
1!
b100010 #
1'
b111 )
b110 *
b10000000010010011 +
b111 ,
b110111 -
b100010 .
b110111 2
b0 4
b0 8
b110111 9
bz00110 ;
#940000
0!
0'
#950000
1!
b110111 $
1'
b11 )
b111 *
b11111110001100011000110011100011 +
b1000 ,
b0 -
b0 .
0/
b11111111111111111111111111111100 0
b10 1
b0 2
03
b0 4
b1 5
16
b0 8
b0 9
x:
bz00011 ;
1<
#960000
0!
0'
#970000
1!
1'
b100 )
b11 *
b100000000000100110011 +
b100 ,
b100010 -
b110111 .
1/
b1 0
bx 1
b1011001 2
b110111 4
b0 5
06
b0 8
b1011001 9
0:
bz00100 ;
0<
#980000
0!
0'
#990000
1!
b1011001 %
1'
b101 )
b100 *
b11111110010000010000110011100011 +
b101 ,
b1011001 -
b11000111101 .
0/
b11111111111111111111111111111100 0
b10 1
b11111111111111111111101000011100 2
b11000111101 4
b1 5
b0 8
bx0x0000xxx00 9
x:
bz00000 ;
0<
